[
  {
    "type": "mongodb",
    "url": "mongodb+srv://vasya:fuNHlIVIbAwvVVkr@cluster0-pfjra.mongodb.net/easy_words?retryWrites=true&w=majority",
    "useNewUrlParser": true,
    "entities": [
      "src/entity/*.*"
    ],
    "logging": true,
    "migrationsTableName": "migrations",
    "migrations": [
      "src/database/migrations/*.ts"
    ],
    "cli": {
      "migrationsDir": "src/database/migrations",
      "entitiesDir": "src/entity"
    }
  },
  {
    "name": "seed",
    "type": "mongodb",
    "url": "mongodb+srv://vasya:fuNHlIVIbAwvVVkr@cluster0-pfjra.mongodb.net/easy_words?retryWrites=true&w=majority",
    "useNewUrlParser": true,
    "entities": [
      "src/entity/*.*"
    ],
    "logging": true,
    "migrationsTableName": "seeds_migrations",
    "migrations": [
      "src/database/seeds/*.ts"
    ],
    "cli": {
      "migrationsDir": "src/database/seeds"
    }
  }
]